Assignment 1
…
Warning: There was 1 warning in `summarise()`.
i In argument: `Gini = calc_gini_for_group(cur_data())`.
i In group 1: `NUTS2 = "FI19"` `Aar = 2023`.
Caused by warning:
! `cur_data()` was deprecated in dplyr 1.1.0.
i Please use `pick()` instead.

print(Gini_NUTS2_Aar)

# A tibble: 659 x 6
   NUTS2   Aar   Gini Mean_BNPPI Total_Pop n_NUTS3
   <chr> <dbl>  <dbl>      <dbl>     <dbl>   <int>
 1 FI19   2023 0.0427     45264.   1384761       5
 2 FI1C   2000 0.0385     24891.    747257       3
 3 FI1C   2001 0.0304     25698.    748709       3
 4 FI1C   2002 0.0529     27478.    750963       3
 5 FI1C   2003 0.0368     27671.    752694       3
 6 FI1C   2004 0.0392     28953.    754550       3
 7 FI1C   2005 0.0423     29480.    756337       3
 8 FI1C   2006 0.0469     30756.    758751       3
 9 FI1C   2007 0.0513     33455.    762182       3
10 FI1C   2008 0.0421     34291.    764583       3
# i 649 more rows
…
# Beregn Gini på NUTS1-nivå per år
Gini_NUTS1_Italia <- Italia_NUTS2 %>%
  mutate(NUTS1 = substr(NUTS2, 1, 2)) %>%  # Legg til NUTS1-kode (IT)
  group_by(NUTS1, Aar) %>%
  summarise(
    Gini = calc_gini_for_group(cur_data()),
    Total_Pop = sum(Innbyggere, na.rm = TRUE),
    .groups = "drop"
  )

print(Gini_NUTS1_Italia)

# A tibble: 23 x 4
   NUTS1   Aar   Gini Total_Pop
   <chr> <dbl>  <dbl>     <dbl>
 1 IT     2000 0.0171   1047919
 2 IT     2001 0.173   55325897
 3 IT     2002 0.174   56993270
 4 IT     2003 0.173   57186378
 5 IT     2004 0.174   57611990
 6 IT     2005 0.172   58044368
 7 IT     2006 0.170   58288996
 8 IT     2007 0.171   58510725
 9 IT     2008 0.179   59001769
10 IT     2009 0.177   59420592
# i 13 more rows
…
